{
    "pattern" : {
        "promptDevice" :   "\\A[a-zA-Z0-9][^\\# ]+#[ ]?$",
        "promptLogin" :    "^.*([Ll]ogin|[Uu]ser|[Uu]sername):[ ]?$",
        "promptPassword" : "[Pp]assword:[ ]?$",
        "errorProxyLogin" : "(telnet: )|(ssh: )",
        "errorLogin" :     "([Bb]ad [Pp]assword)|([Ll]ogin [Ii]nvalid)|([Aa]ccess [Dd]enied)|([Pp]ermission [Dd]enied)|([Rr]equest [Dd]enied)"
    },
    "command" : {
        "sshCmd" : "ssh -p $(proxy/remote-port) $(proxy/remote-name)@$(proxy/remote-address)",
        "telnetCmd" : "telnet $(proxy/remote-address) $(proxy/remote-port)"
    },
    "state": {
        "new" : [
            {"expect": null,              "action": "connect()",                             "nextState": "proxylogin"}
        ],
        "proxylogin" : [
            {"expect": "$promptLogin",    "action": "sendUsername()",                        "nextState": "proxylogin"},
            {"expect": "$promptPassword", "action": "sendPassword()",                        "nextState": "proxylogin"},
            {"expect": "$(proxy/proxy-prompt)", "action": "$$(proxy/remote-connection)Cmd",  "nextState": "login"},
            {"expect": "$errorLogin",     "action": "reportError()",                         "nextState": "invalid"}
        ],
        "login" : [
            {"expect": "$promptLogin",    "action": "$(proxy/remote-name)",                  "nextState": "login"},
            {"expect": "$promptPassword", "action": "password($(proxy/remote-password))",    "nextState": "login"},
            {"expect": "$errorProxyLogin", "action": "reportError()",                        "nextState": "invalid"},
            {"expect": "$errorLogin",     "action": "reportError()",                         "nextState": "invalid"},
            {"expect": "$promptDevice",   "action": null,                                    "nextState": "end"}
        ]
    }
}
